…
# Check number of repeats at each stimulus intensity
data %>% 
    group_by(PID, intensity) %>% 
    summarise(repeats = n())
```

```
## # A tibble: 63 x 3
## # Groups:   PID [?]
##    PID      intensity repeats
##    <chr>        <dbl>   <int>
##  1 FST1601a      2.25      12
##  2 FST1601a      2.5       12
##  3 FST1601a      2.75      12
##  4 FST1601a      3         12
##  5 FST1601a      3.25       8
##  6 FST1601a      3.5       11
##  7 FST1601a      3.75       9
##  8 FST1601a      4         12
##  9 FST1601a      4.25      12
## 10 FST1601b      2.25      11
## # ... with 53 more rows
```
…
